// Jest Snapshot v1, https://goo.gl/fbAQLP

exports[`<Episodes /> Should match the snapshot 1`] = `
<div>
  <div
    class="css-1kwtbj6"
  >
    <div
      class="css-xc6jdm"
      data-testid="episodes-count"
    >
      Episodes: 
      2
    </div>
    <table
      class="css-bkz6sb"
    >
      <thead
        class="css-1xxe9l9"
      >
        <tr
          class="css-0"
        >
          <td
            class="css-qr11i7"
          >
            Title
          </td>
          <td
            class="css-qr11i7"
          >
            Date
          </td>
          <td
            class="css-qr11i7"
          >
            Duration
          </td>
        </tr>
      </thead>
      <tbody
        class="css-1w0mx4t"
      >
        <tr
          class="css-0"
          data-testid="episode"
        >
          <td
            class="css-qr11i7"
          >
            <a
              href="/podcast/undefined/episode/f95e7f13-9f71-4e44-9266-e8616ca1f2e1"
            >
              <span
                class="css-1cirbr0"
                data-testid="episode-title"
              >
                Sad Ass Songs
              </span>
            </a>
          </td>
          <td
            class="css-qr11i7"
            data-testid="episode-date"
          >
            2019-10-15
          </td>
          <td
            class="css-qr11i7"
            data-testid="episode-duration"
          >
            57:12
          </td>
        </tr>
        <tr
          class="css-0"
          data-testid="episode"
        >
          <td
            class="css-qr11i7"
          >
            <a
              href="/podcast/undefined/episode/328a798c-d0ff-4a09-a275-278cd3a1c678"
            >
              <span
                class="css-1cirbr0"
                data-testid="episode-title"
              >
                Dolly Parton's America Trailer
              </span>
            </a>
          </td>
          <td
            class="css-qr11i7"
            data-testid="episode-date"
          >
            2019-10-3
          </td>
          <td
            class="css-qr11i7"
            data-testid="episode-duration"
          >
            1:04
          </td>
        </tr>
      </tbody>
    </table>
  </div>
</div>
`;
